(module LOGO (layer F.Cu)
  (at 0 0)
 (fp_text reference "G***" (at 0 0) (layer F.SilkS) hide
  (effects (font (thickness 0.3)))
  )
  (fp_text value "LOGO" (at 0.75 0) (layer F.SilkS) hide
  (effects (font (thickness 0.3)))
  )
  (fp_poly (pts (xy -5.322026 -36.921835) (xy -4.861765 -36.915267) (xy -4.489345 -36.909366) (xy -4.004423 -36.902715) (xy -3.421493 -36.895465) (xy -2.755050 -36.887769) (xy -2.019588 -36.879779) (xy -1.229602 -36.871650)
     (xy -0.399585 -36.863532) (xy 0.455966 -36.855579) (xy 1.322559 -36.847944) (xy 2.185698 -36.840779) (xy 2.286000 -36.839977) (xy 3.223775 -36.832436) (xy 4.043025 -36.825565) (xy 4.752221 -36.819098)
     (xy 5.359835 -36.812770) (xy 5.874337 -36.806316) (xy 6.304199 -36.799469) (xy 6.657892 -36.791966) (xy 6.943888 -36.783540) (xy 7.170658 -36.773926) (xy 7.346672 -36.762858) (xy 7.480404 -36.750072)
     (xy 7.580322 -36.735303) (xy 7.654900 -36.718284) (xy 7.712609 -36.698750) (xy 7.761919 -36.676436) (xy 7.778750 -36.667926) (xy 7.949225 -36.553054) (xy 8.090600 -36.389522) (xy 8.210967 -36.160003)
     (xy 8.318415 -35.847172) (xy 8.421036 -35.433702) (xy 8.474021 -35.179000) (xy 8.514134 -34.976173) (xy 8.576069 -34.661913) (xy 8.657231 -34.249419) (xy 8.755030 -33.751889) (xy 8.866871 -33.182521)
     (xy 8.990164 -32.554515) (xy 9.122315 -31.881069) (xy 9.260733 -31.175381) (xy 9.402823 -30.450650) (xy 9.428187 -30.321250) (xy 9.567718 -29.612944) (xy 9.702485 -28.935708) (xy 9.830159 -28.300807)
     (xy 9.948411 -27.719502) (xy 10.054914 -27.203056) (xy 10.147338 -26.762732) (xy 10.223357 -26.409793) (xy 10.280641 -26.155501) (xy 10.316863 -26.011119) (xy 10.323489 -25.990335) (xy 10.400684 -25.815634)
     (xy 10.501118 -25.668849) (xy 10.641127 -25.540087) (xy 10.837045 -25.419457) (xy 11.105208 -25.297069) (xy 11.461952 -25.163032) (xy 11.923610 -25.007453) (xy 11.973597 -24.991168) (xy 12.451832 -24.838234)
     (xy 12.829418 -24.724829) (xy 13.125181 -24.647430) (xy 13.357952 -24.602509) (xy 13.546557 -24.586543) (xy 13.709827 -24.596007) (xy 13.866590 -24.627374) (xy 13.887423 -24.632864) (xy 13.994847 -24.682787)
     (xy 14.190117 -24.798877) (xy 14.475115 -24.982417) (xy 14.851721 -25.234689) (xy 15.321817 -25.556978) (xy 15.887283 -25.950567) (xy 16.550003 -26.416738) (xy 17.311855 -26.956775) (xy 17.715333 -27.244050)
     (xy 18.323007 -27.677018) (xy 18.907890 -28.093284) (xy 19.460553 -28.486166) (xy 19.971565 -28.848982) (xy 20.431496 -29.175049) (xy 20.830916 -29.457684) (xy 21.160394 -29.690206) (xy 21.410500 -29.865931)
     (xy 21.571803 -29.978177) (xy 21.618884 -30.010189) (xy 21.957555 -30.196029) (xy 22.258868 -30.271858) (xy 22.543459 -30.240648) (xy 22.720581 -30.168836) (xy 22.799523 -30.106941) (xy 22.960902 -29.962026)
     (xy 23.197611 -29.741129) (xy 23.502545 -29.451293) (xy 23.868596 -29.099557) (xy 24.288660 -28.692962) (xy 24.755630 -28.238550) (xy 25.262401 -27.743359) (xy 25.801865 -27.214432) (xy 26.366918 -26.658809)
     (xy 26.950452 -26.083530) (xy 27.545363 -25.495637) (xy 28.144543 -24.902169) (xy 28.740887 -24.310167) (xy 29.327290 -23.726672) (xy 29.896644 -23.158725) (xy 30.441843 -22.613367) (xy 30.955783 -22.097637)
     (xy 31.431356 -21.618576) (xy 31.861457 -21.183226) (xy 32.238979 -20.798626) (xy 32.556817 -20.471818) (xy 32.807865 -20.209842) (xy 32.985016 -20.019739) (xy 33.081164 -19.908549) (xy 33.092983 -19.891906)
     (xy 33.203415 -19.602220) (xy 33.218113 -19.276916) (xy 33.135849 -18.965217) (xy 33.117095 -18.926569) (xy 33.065333 -18.836782) (xy 32.952927 -18.649109) (xy 32.786060 -18.373665) (xy 32.570916 -18.020560)
     (xy 32.313678 -17.599907) (xy 32.020528 -17.121816) (xy 31.697650 -16.596401) (xy 31.351227 -16.033773) (xy 31.005637 -15.473513) (xy 30.493711 -14.644605) (xy 30.044119 -13.916899) (xy 29.652806 -13.283329)
     (xy 29.315721 -12.736831) (xy 29.028809 -12.270338) (xy 28.788018 -11.876787) (xy 28.589294 -11.549110) (xy 28.428584 -11.280244) (xy 28.301835 -11.063122) (xy 28.204994 -10.890679) (xy 28.134008 -10.755850)
     (xy 28.084823 -10.651570) (xy 28.053386 -10.570773) (xy 28.035645 -10.506393) (xy 28.027545 -10.451366) (xy 28.025034 -10.398626) (xy 28.024059 -10.341107) (xy 28.020566 -10.271745) (xy 28.020409 -10.269771)
     (xy 28.009230 -10.078706) (xy 28.016781 -9.922554) (xy 28.051663 -9.766199) (xy 28.122478 -9.574525) (xy 28.237825 -9.312418) (xy 28.274656 -9.231709) (xy 28.414739 -8.921180) (xy 28.554596 -8.603580)
     (xy 28.673325 -8.326689) (xy 28.722567 -8.207783) (xy 28.828449 -7.968620) (xy 28.940605 -7.749197) (xy 29.019035 -7.620653) (xy 29.079184 -7.538536) (xy 29.141046 -7.465351) (xy 29.213341 -7.398793)
     (xy 29.304790 -7.336559) (xy 29.424112 -7.276345) (xy 29.580027 -7.215846) (xy 29.781257 -7.152760) (xy 30.036519 -7.084781) (xy 30.354536 -7.009607) (xy 30.744027 -6.924933) (xy 31.213711 -6.828455)
     (xy 31.772310 -6.717869) (xy 32.428544 -6.590872) (xy 33.191131 -6.445159) (xy 34.068793 -6.278427) (xy 34.176741 -6.257944) (xy 34.918355 -6.116527) (xy 35.627710 -5.979898) (xy 36.294258 -5.850176)
     (xy 36.907452 -5.729475) (xy 37.456742 -5.619913) (xy 37.931582 -5.523606) (xy 38.321423 -5.442670) (xy 38.615716 -5.379222) (xy 38.803915 -5.335379) (xy 38.870137 -5.316209) (xy 39.145833 -5.134496)
     (xy 39.348124 -4.858879) (xy 39.434086 -4.633321) (xy 39.445340 -4.525657) (xy 39.455212 -4.292094) (xy 39.463696 -3.933725) (xy 39.470785 -3.451642) (xy 39.476471 -2.846939) (xy 39.480747 -2.120709)
     (xy 39.483607 -1.274046) (xy 39.485044 -0.308041) (xy 39.485050 0.776211) (xy 39.483618 1.977618) (xy 39.481927 2.814996) (xy 39.479331 3.924647) (xy 39.476875 4.914349) (xy 39.474416 5.791150)
     (xy 39.471814 6.562102) (xy 39.468929 7.234254) (xy 39.465619 7.814656) (xy 39.461745 8.310358) (xy 39.457166 8.728410) (xy 39.451741 9.075862) (xy 39.445329 9.359764) (xy 39.437790 9.587165)
     (xy 39.428983 9.765116) (xy 39.418768 9.900667) (xy 39.407004 10.000868) (xy 39.393550 10.072768) (xy 39.378266 10.123418) (xy 39.361011 10.159868) (xy 39.341645 10.189166) (xy 39.334650 10.198624)
     (xy 39.185496 10.349262) (xy 38.999501 10.478972) (xy 38.985400 10.486469) (xy 38.888915 10.521109) (xy 38.679926 10.585116) (xy 38.368769 10.675629) (xy 37.965782 10.789782) (xy 37.481302 10.924714)
     (xy 36.925667 11.077559) (xy 36.309213 11.245456) (xy 35.642278 11.425539) (xy 34.935199 11.614946) (xy 34.342272 11.772668) (xy 33.611624 11.967046) (xy 32.913715 12.153932) (xy 32.258761 12.330512)
     (xy 31.656979 12.493977) (xy 31.118588 12.641514) (xy 30.653803 12.770312) (xy 30.272843 12.877559) (xy 29.985924 12.960443) (xy 29.803263 13.016153) (xy 29.738522 13.039547) (xy 29.588894 13.129894)
     (xy 29.457720 13.242490) (xy 29.335378 13.393546) (xy 29.212244 13.599275) (xy 29.078695 13.875889) (xy 28.925107 14.239601) (xy 28.741857 14.706624) (xy 28.728806 14.740640) (xy 28.550104 15.215530)
     (xy 28.418054 15.591867) (xy 28.329080 15.887746) (xy 28.279606 16.121259) (xy 28.266057 16.310500) (xy 28.284858 16.473563) (xy 28.332433 16.628540) (xy 28.348068 16.667340) (xy 28.400255 16.754651)
     (xy 28.521120 16.935365) (xy 28.704252 17.200459) (xy 28.943242 17.540911) (xy 29.231678 17.947700) (xy 29.563151 18.411802) (xy 29.931250 18.924197) (xy 30.329565 19.475861) (xy 30.751686 20.057774)
     (xy 30.974714 20.364175) (xy 31.406692 20.957828) (xy 31.818511 21.525481) (xy 32.203729 22.058148) (xy 32.555906 22.546841) (xy 32.868599 22.982575) (xy 33.135370 23.356361) (xy 33.349775 23.659213)
     (xy 33.505373 23.882145) (xy 33.595725 24.016169) (xy 33.614646 24.047471) (xy 33.706756 24.356949) (xy 33.691123 24.681731) (xy 33.584407 24.952431) (xy 33.524222 25.022453) (xy 33.380450 25.175061)
     (xy 33.159819 25.403546) (xy 32.869051 25.701203) (xy 32.514873 26.061324) (xy 32.104008 26.477202) (xy 31.643182 26.942130) (xy 31.139120 27.449401) (xy 30.598546 27.992309) (xy 30.028185 28.564147)
     (xy 29.434763 29.158207) (xy 28.825003 29.767782) (xy 28.205631 30.386166) (xy 27.583371 31.006651) (xy 26.964949 31.622531) (xy 26.357089 32.227099) (xy 25.766515 32.813648) (xy 25.199954 33.375470)
     (xy 24.664129 33.905859) (xy 24.165766 34.398108) (xy 23.711589 34.845510) (xy 23.308323 35.241358) (xy 22.962693 35.578945) (xy 22.681424 35.851564) (xy 22.471241 36.052509) (xy 22.338868 36.175071)
     (xy 22.296378 36.210456) (xy 22.074847 36.295473) (xy 21.797324 36.317356) (xy 21.518026 36.276080) (xy 21.352826 36.210875) (xy 21.306243 36.183077) (xy 21.246465 36.142071) (xy 21.167332 36.082556)
     (xy 21.062687 35.999229) (xy 20.926369 35.886787) (xy 20.752222 35.739929) (xy 20.534086 35.553350) (xy 20.265802 35.321750) (xy 19.941213 35.039826) (xy 19.554159 34.702275) (xy 19.098482 34.303795)
     (xy 18.568023 33.839084) (xy 17.956624 33.302839) (xy 17.258126 32.689757) (xy 17.003108 32.465855) (xy 16.446986 31.980991) (xy 15.969593 31.572014) (xy 15.573567 31.241082) (xy 15.261546 30.990354)
     (xy 15.036167 30.821988) (xy 14.900066 30.738141) (xy 14.884204 30.731839) (xy 14.743031 30.693134) (xy 14.600617 30.675803) (xy 14.443420 30.684399) (xy 14.257898 30.723471) (xy 14.030511 30.797571)
     (xy 13.747717 30.911250) (xy 13.395976 31.069059) (xy 12.961745 31.275550) (xy 12.431484 31.535272) (xy 12.299613 31.600493) (xy 10.522963 32.480250) (xy 8.293606 32.461682) (xy 7.787801 32.457089)
     (xy 7.226593 32.451249) (xy 6.604427 32.444081) (xy 5.915745 32.435505) (xy 5.154994 32.425438) (xy 4.316617 32.413800) (xy 3.395058 32.400508) (xy 2.384761 32.385483) (xy 1.280172 32.368642)
     (xy 0.075733 32.349905) (xy -1.234110 32.329190) (xy -2.654914 32.306415) (xy -4.192234 32.281500) (xy -5.651500 32.257647) (xy -6.379345 32.244828) (xy -7.079171 32.230810) (xy -7.739056 32.215939)
     (xy -8.347075 32.200563) (xy -8.891306 32.185029) (xy -9.359825 32.169684) (xy -9.740710 32.154873) (xy -10.022037 32.140946) (xy -10.191883 32.128247) (xy -10.219363 32.124722) (xy -10.506920 32.054713)
     (xy -10.875145 31.926515) (xy -11.297276 31.749674) (xy -11.391582 31.706642) (xy -11.923375 31.466130) (xy -12.354263 31.284106) (xy -12.694101 31.156924) (xy -12.952749 31.080941) (xy -13.140063 31.052511)
     (xy -13.161825 31.052120) (xy -13.295129 31.065911) (xy -13.454606 31.110832) (xy -13.652683 31.193336) (xy -13.901784 31.319872) (xy -14.214337 31.496893) (xy -14.602766 31.730850) (xy -15.079497 32.028194)
     (xy -15.252088 32.137378) (xy -16.297645 32.799268) (xy -17.255667 33.403094) (xy -18.124233 33.947678) (xy -18.901422 34.431847) (xy -19.585314 34.854422) (xy -20.173988 35.214230) (xy -20.665524 35.510094)
     (xy -21.058000 35.740839) (xy -21.349497 35.905288) (xy -21.538092 36.002266) (xy -21.611173 36.030076) (xy -21.912100 36.024877) (xy -22.065587 35.977119) (xy -22.141530 35.919756) (xy -22.300218 35.779164)
     (xy -22.534797 35.562119) (xy -22.838414 35.275401) (xy -23.204217 34.925784) (xy -23.625350 34.520047) (xy -24.094960 34.064967) (xy -24.606195 33.567320) (xy -25.152200 33.033884) (xy -25.726122 32.471436)
     (xy -26.321107 31.886753) (xy -26.930303 31.286612) (xy -27.546855 30.677790) (xy -28.163909 30.067064) (xy -28.774613 29.461211) (xy -29.372113 28.867009) (xy -29.949556 28.291235) (xy -30.500087 27.740665)
     (xy -31.016853 27.222077) (xy -31.493001 26.742247) (xy -31.921677 26.307954) (xy -32.296028 25.925973) (xy -32.609201 25.603083) (xy -32.854341 25.346060) (xy -33.024595 25.161681) (xy -33.113110 25.056724)
     (xy -33.120811 25.045171) (xy -33.247303 24.719939) (xy -33.258323 24.386339) (xy -33.160214 24.086702) (xy -33.103433 24.002298) (xy -32.975866 23.826329) (xy -32.784299 23.567786) (xy -32.535519 23.235661)
     (xy -32.236316 22.838944) (xy -31.893475 22.386625) (xy -31.513785 21.887695) (xy -31.104032 21.351144) (xy -30.671004 20.785964) (xy -30.511750 20.578558) (xy -30.069485 20.002179) (xy -29.645993 19.448879)
     (xy -29.248332 18.927964) (xy -28.883556 18.448743) (xy -28.558721 18.020521) (xy -28.280883 17.652608) (xy -28.057097 17.354308) (xy -27.894419 17.134931) (xy -27.799904 17.003783) (xy -27.784947 16.981564)
     (xy -27.673083 16.787352) (xy -27.599140 16.598311) (xy -27.564602 16.395967) (xy -27.570953 16.161848) (xy -27.619675 15.877480) (xy -27.712252 15.524392) (xy -27.850169 15.084109) (xy -27.964754 14.742642)
     (xy -28.099432 14.357448) (xy -28.229702 14.002738) (xy -28.347093 13.700238) (xy -28.443132 13.471671) (xy -28.509348 13.338764) (xy -28.516250 13.328329) (xy -28.659902 13.179477) (xy -28.852800 13.040147)
     (xy -28.906906 13.010150) (xy -29.020126 12.970587) (xy -29.240310 12.913328) (xy -29.569809 12.837891) (xy -30.010974 12.743794) (xy -30.566155 12.630555) (xy -31.237702 12.497694) (xy -32.027966 12.344727)
     (xy -32.939297 12.171175) (xy -33.703065 12.027323) (xy -34.633651 11.852083) (xy -35.445779 11.697631) (xy -36.146043 11.562604) (xy -36.741039 11.445636) (xy -37.237359 11.345363) (xy -37.641600 11.260421)
     (xy -37.960356 11.189445) (xy -38.200221 11.131071) (xy -38.367791 11.083935) (xy -38.469659 11.046672) (xy -38.488251 11.037295) (xy -38.736948 10.828755) (xy -38.862306 10.635619) (xy -38.881928 10.592270)
     (xy -38.899511 10.542995) (xy -38.915228 10.480663) (xy -38.929257 10.398143) (xy -38.941771 10.288304) (xy -38.952947 10.144017) (xy -38.962960 9.958149) (xy -38.971984 9.723571) (xy -38.980197 9.433151)
     (xy -38.987772 9.079759) (xy -38.994885 8.656264) (xy -39.001713 8.155536) (xy -39.008429 7.570443) (xy -39.015209 6.893855) (xy -39.022230 6.118641) (xy -39.029665 5.237671) (xy -39.037691 4.243813)
     (xy -39.046286 3.155029) (xy -39.053299 2.203918) (xy -39.059183 1.285550) (xy -39.063932 0.408234) (xy -39.067540 -0.419724) (xy -39.070001 -1.190014) (xy -39.071306 -1.894329) (xy -39.071451 -2.524361)
     (xy -39.070427 -3.071801) (xy -39.068229 -3.528343) (xy -39.064850 -3.885677) (xy -39.060282 -4.135496) (xy -39.054521 -4.269492) (xy -39.052257 -4.287331) (xy -38.922491 -4.605255) (xy -38.694368 -4.842913)
     (xy -38.481000 -4.959797) (xy -38.381343 -4.988419) (xy -38.168154 -5.040112) (xy -37.852334 -5.112546) (xy -37.444785 -5.203390) (xy -36.956409 -5.310314) (xy -36.398108 -5.430988) (xy -35.780783 -5.563083)
     (xy -35.115336 -5.704268) (xy -34.412669 -5.852212) (xy -33.683683 -6.004586) (xy -32.939281 -6.159059) (xy -32.190363 -6.313302) (xy -31.447832 -6.464984) (xy -31.267103 -6.501698) (xy -30.767196 -6.604405)
     (xy -30.300410 -6.702723) (xy -29.883142 -6.793014) (xy -29.531794 -6.871637) (xy -29.262763 -6.934951) (xy -29.092450 -6.979316) (xy -29.045507 -6.994868) (xy -28.658898 -7.203630) (xy -28.352856 -7.469708)
     (xy -28.108985 -7.814423) (xy -27.908892 -8.259099) (xy -27.876649 -8.349819) (xy -27.791026 -8.577635) (xy -27.671090 -8.869996) (xy -27.537578 -9.176998) (xy -27.482932 -9.297244) (xy -27.310852 -9.720893)
     (xy -27.223376 -10.074710) (xy -27.218259 -10.381524) (xy -27.293258 -10.664167) (xy -27.338854 -10.763250) (xy -27.398121 -10.856763) (xy -27.526678 -11.043010) (xy -27.717928 -11.312896) (xy -27.965270 -11.657322)
     (xy -28.262106 -12.067194) (xy -28.601836 -12.533414) (xy -28.977860 -13.046885) (xy -29.383581 -13.598511) (xy -29.812398 -14.179195) (xy -30.033710 -14.478000) (xy -30.474176 -15.073018) (xy -30.896943 -15.645873)
     (xy -31.295149 -16.187157) (xy -31.661930 -16.687458) (xy -31.990422 -17.137366) (xy -32.273761 -17.527469) (xy -32.505086 -17.848358) (xy -32.677530 -18.090621) (xy -32.784233 -18.244847) (xy -32.809732 -18.284265)
     (xy -32.978123 -18.642280) (xy -33.025813 -18.970074) (xy -32.953022 -19.276242) (xy -32.840211 -19.469098) (xy -32.770092 -19.547766) (xy -32.616245 -19.707742) (xy -32.385519 -19.942313) (xy -32.084760 -20.244764)
     (xy -31.720818 -20.608381) (xy -31.300540 -21.026451) (xy -30.830775 -21.492258) (xy -30.318370 -21.999090) (xy -29.770174 -22.540232) (xy -29.193035 -23.108969) (xy -28.593801 -23.698589) (xy -27.979320 -24.302376)
     (xy -27.356441 -24.913617) (xy -26.732010 -25.525597) (xy -26.112877 -26.131603) (xy -25.505889 -26.724920) (xy -24.917895 -27.298834) (xy -24.355743 -27.846632) (xy -23.826280 -28.361599) (xy -23.336355 -28.837020)
     (xy -22.892817 -29.266183) (xy -22.502512 -29.642373) (xy -22.172290 -29.958875) (xy -21.908998 -30.208976) (xy -21.719484 -30.385962) (xy -21.610597 -30.483118) (xy -21.590797 -30.498352) (xy -21.364687 -30.585994)
     (xy -21.083865 -30.620590) (xy -20.807838 -30.599489) (xy -20.631141 -30.541088) (xy -20.556039 -30.489819) (xy -20.388604 -30.367887) (xy -20.137413 -30.181745) (xy -19.811042 -29.937841) (xy -19.418068 -29.642628)
     (xy -18.967067 -29.302558) (xy -18.466614 -28.924080) (xy -17.925287 -28.513646) (xy -17.351660 -28.077707) (xy -16.970349 -27.787386) (xy -16.375902 -27.334960) (xy -15.804757 -26.901229) (xy -15.265941 -26.492986)
     (xy -14.768479 -26.117027) (xy -14.321396 -25.780143) (xy -13.933717 -25.489129) (xy -13.614468 -25.250780) (xy -13.372674 -25.071887) (xy -13.217360 -24.959247) (xy -13.169504 -24.926332) (xy -12.834943 -24.764337)
     (xy -12.479258 -24.702468) (xy -12.084079 -24.740512) (xy -11.631038 -24.878252) (xy -11.557000 -24.907481) (xy -11.270669 -25.022091) (xy -10.986801 -25.133423) (xy -10.755650 -25.221826) (xy -10.705872 -25.240288)
     (xy -10.362344 -25.415945) (xy -10.071680 -25.660196) (xy -9.865121 -25.944445) (xy -9.815941 -26.054913) (xy -9.776941 -26.191890) (xy -9.720127 -26.432770) (xy -9.649989 -26.756429) (xy -9.571017 -27.141744)
     (xy -9.487702 -27.567591) (xy -9.435456 -27.844750) (xy -9.242181 -28.882568) (xy -9.054769 -29.883086) (xy -8.874629 -30.839052) (xy -8.703169 -31.743213) (xy -8.541800 -32.588316) (xy -8.391930 -33.367108)
     (xy -8.254968 -34.072337) (xy -8.132324 -34.696748) (xy -8.025406 -35.233089) (xy -7.935625 -35.674108) (xy -7.864388 -36.012551) (xy -7.813106 -36.241165) (xy -7.783187 -36.352698) (xy -7.781744 -36.356379)
     (xy -7.615678 -36.595803) (xy -7.350563 -36.780585) (xy -7.046168 -36.886955) (xy -6.899976 -36.903754) (xy -6.640666 -36.915820) (xy -6.282037 -36.922975) (xy -5.837890 -36.925040) (xy -5.322026 -36.921835) )(layer Edge.Cuts) (width  0.010000)
  )
)
