EESchema Schematic File Version 4
EELAYER 30 0
EELAYER END
$Descr A4 11693 8268
encoding utf-8
Sheet 1 1
Title ""
Date ""
Rev ""
Comp ""
Comment1 ""
Comment2 ""
Comment3 ""
Comment4 ""
$EndDescr
$Comp
L RF_Module:ESP-12E U4
U 1 1 5F6C8912
P 8800 5050
F 0 "U4" H 8500 4350 50  0000 C CNN
F 1 "ESP-12E" H 8750 5150 50  0000 C CNN
F 2 "RF_Module:ESP-12E" H 8800 5050 50  0001 C CNN
F 3 "http://wiki.ai-thinker.com/_media/esp8266/esp8266_series_modules_user_manual_v1.1.pdf" H 8450 5150 50  0001 C CNN
	1    8800 5050
	1    0    0    -1  
$EndComp
$Comp
L Device:LED D5
U 1 1 5F6D3F02
P 4000 1750
F 0 "D5" H 3993 1495 50  0000 C CNN
F 1 "LED" H 3993 1586 50  0000 C CNN
F 2 "LED_SMD:LED_0805_2012Metric" H 4000 1750 50  0001 C CNN
F 3 "~" H 4000 1750 50  0001 C CNN
	1    4000 1750
	0    -1   -1   0   
$EndComp
$Comp
L Device:R R2
U 1 1 5F6D597C
P 4000 1350
F 0 "R2" V 3793 1350 50  0000 C CNN
F 1 "470" V 3884 1350 50  0000 C CNN
F 2 "Resistor_SMD:R_0805_2012Metric" V 3930 1350 50  0001 C CNN
F 3 "~" H 4000 1350 50  0001 C CNN
	1    4000 1350
	-1   0    0    1   
$EndComp
$Comp
L Device:R R7
U 1 1 5F6D5D8E
P 10150 4050
F 0 "R7" V 9943 4050 50  0000 C CNN
F 1 "12K" V 10034 4050 50  0000 C CNN
F 2 "Resistor_SMD:R_0805_2012Metric" V 10080 4050 50  0001 C CNN
F 3 "~" H 10150 4050 50  0001 C CNN
	1    10150 4050
	-1   0    0    1   
$EndComp
$Comp
L Device:R R4
U 1 1 5F6D62B5
P 7550 4100
F 0 "R4" V 7343 4100 50  0000 C CNN
F 1 "12K" V 7434 4100 50  0000 C CNN
F 2 "Resistor_SMD:R_0805_2012Metric" V 7480 4100 50  0001 C CNN
F 3 "~" H 7550 4100 50  0001 C CNN
	1    7550 4100
	-1   0    0    1   
$EndComp
$Comp
L Regulator_Linear:LM1117-3.3 U2
U 1 1 5F6DF000
P 2750 1150
F 0 "U2" H 2750 1392 50  0000 C CNN
F 1 "LM1117-3.3" H 2750 1301 50  0000 C CNN
F 2 "Package_TO_SOT_SMD:SOT-223" H 2750 1150 50  0001 C CNN
F 3 "http://www.ti.com/lit/ds/symlink/lm1117.pdf" H 2750 1150 50  0001 C CNN
	1    2750 1150
	1    0    0    -1  
$EndComp
$Comp
L Device:R R6
U 1 1 5F6DFE8B
P 9700 5550
F 0 "R6" H 9770 5596 50  0000 L CNN
F 1 "12K" H 9770 5505 50  0000 L CNN
F 2 "Resistor_SMD:R_0805_2012Metric" V 9630 5550 50  0001 C CNN
F 3 "~" H 9700 5550 50  0001 C CNN
	1    9700 5550
	1    0    0    -1  
$EndComp
$Comp
L Device:CP C3
U 1 1 5F6E03B4
P 2150 1450
F 0 "C3" H 2268 1496 50  0000 L CNN
F 1 "4.7uF" H 2268 1405 50  0000 L CNN
F 2 "Capacitor_THT:CP_Radial_D4.0mm_P1.50mm" H 2188 1300 50  0001 C CNN
F 3 "~" H 2150 1450 50  0001 C CNN
	1    2150 1450
	1    0    0    -1  
$EndComp
$Comp
L power:GND #PWR011
U 1 1 5F7337F6
P 8800 6050
F 0 "#PWR011" H 8800 5800 50  0001 C CNN
F 1 "GND" H 8805 5877 50  0000 C CNN
F 2 "" H 8800 6050 50  0001 C CNN
F 3 "" H 8800 6050 50  0001 C CNN
	1    8800 6050
	1    0    0    -1  
$EndComp
Wire Wire Line
	8800 5750 8800 5950
Wire Wire Line
	9400 5350 9700 5350
Wire Wire Line
	9700 5350 9700 5400
Wire Wire Line
	8800 5950 9700 5950
Wire Wire Line
	9700 5950 9700 5700
Connection ~ 8800 5950
Wire Wire Line
	8800 5950 8800 6050
Wire Wire Line
	9400 4450 10150 4450
Wire Wire Line
	8200 4450 7550 4450
Wire Wire Line
	7550 4450 7550 4250
Wire Wire Line
	7550 3950 7550 3750
Wire Wire Line
	10150 4200 10150 4450
Wire Wire Line
	10150 3750 10150 3900
Wire Wire Line
	7550 3750 8000 3750
Wire Wire Line
	2150 1300 2150 1150
Wire Wire Line
	2150 1150 2450 1150
$Comp
L power:GND #PWR04
U 1 1 5F73AB94
P 2750 1850
F 0 "#PWR04" H 2750 1600 50  0001 C CNN
F 1 "GND" H 2755 1677 50  0000 C CNN
F 2 "" H 2750 1850 50  0001 C CNN
F 3 "" H 2750 1850 50  0001 C CNN
	1    2750 1850
	1    0    0    -1  
$EndComp
Wire Wire Line
	2150 1600 2150 1750
Wire Wire Line
	2150 1750 2500 1750
Wire Wire Line
	2750 1750 2750 1450
Connection ~ 2750 1750
Wire Wire Line
	2750 1750 2750 1850
Text Label 2200 1150 0    50   ~ 0
5V
Text Label 3200 1150 0    50   ~ 0
3.3V
$Comp
L power:GND #PWR01
U 1 1 5F73FF2E
P 1050 1950
F 0 "#PWR01" H 1050 1700 50  0001 C CNN
F 1 "GND" H 1055 1777 50  0000 C CNN
F 2 "" H 1050 1950 50  0001 C CNN
F 3 "" H 1050 1950 50  0001 C CNN
	1    1050 1950
	1    0    0    -1  
$EndComp
Connection ~ 2150 1150
Wire Wire Line
	1050 1750 1050 1850
Wire Wire Line
	4000 1500 4000 1600
$Comp
L power:GND #PWR06
U 1 1 5F74422C
P 4000 2100
F 0 "#PWR06" H 4000 1850 50  0001 C CNN
F 1 "GND" H 4005 1927 50  0000 C CNN
F 2 "" H 4000 2100 50  0001 C CNN
F 3 "" H 4000 2100 50  0001 C CNN
	1    4000 2100
	1    0    0    -1  
$EndComp
Wire Wire Line
	4000 1900 4000 2100
Wire Wire Line
	4000 1150 4000 1200
Wire Wire Line
	4000 1150 4600 1150
Connection ~ 4000 1150
Wire Wire Line
	8800 4250 8800 3750
Connection ~ 8800 3750
Wire Wire Line
	8800 3750 10150 3750
Wire Wire Line
	8800 3750 8800 3600
Text GLabel 8800 3600 2    50   Input ~ 0
VCC
Text GLabel 4600 1150 2    50   Input ~ 0
VCC
$Comp
L Switch:SW_Push SW2
U 1 1 5F748589
P 7800 1500
F 0 "SW2" V 7700 1300 50  0000 L CNN
F 1 "Reset" V 7800 1300 50  0000 L CNN
F 2 "Button_Switch_SMD:SW_SPST_PTS645" H 7800 1700 50  0001 C CNN
F 3 "~" H 7800 1700 50  0001 C CNN
	1    7800 1500
	0    1    1    0   
$EndComp
$Comp
L Device:R R5
U 1 1 5F75E8F9
P 8000 4100
F 0 "R5" V 7793 4100 50  0000 C CNN
F 1 "12K" V 7884 4100 50  0000 C CNN
F 2 "Resistor_SMD:R_0805_2012Metric" V 7930 4100 50  0001 C CNN
F 3 "~" H 8000 4100 50  0001 C CNN
	1    8000 4100
	-1   0    0    1   
$EndComp
Wire Wire Line
	8000 4250 8000 4650
Wire Wire Line
	8000 4650 8200 4650
Wire Wire Line
	8000 3950 8000 3750
Connection ~ 8000 3750
Wire Wire Line
	8000 3750 8800 3750
$Comp
L Connector:Conn_01x04_Female J5
U 1 1 5F7616C1
P 10000 2250
F 0 "J5" H 10028 2226 50  0000 L CNN
F 1 "Conn_01x04_Female" H 10028 2135 50  0000 L CNN
F 2 "Connector_PinHeader_1.27mm:PinHeader_1x04_P1.27mm_Vertical" H 10000 2250 50  0001 C CNN
F 3 "~" H 10000 2250 50  0001 C CNN
	1    10000 2250
	1    0    0    -1  
$EndComp
Wire Wire Line
	9800 2150 9500 2150
Text GLabel 9500 2150 0    50   Input ~ 0
VCC
Wire Wire Line
	9800 2250 9500 2250
Wire Wire Line
	9800 2350 9500 2350
Wire Wire Line
	9800 2450 9500 2450
Wire Wire Line
	9500 2450 9500 2600
$Comp
L power:GND #PWR012
U 1 1 5F766037
P 9500 2600
F 0 "#PWR012" H 9500 2350 50  0001 C CNN
F 1 "GND" H 9505 2427 50  0000 C CNN
F 2 "" H 9500 2600 50  0001 C CNN
F 3 "" H 9500 2600 50  0001 C CNN
	1    9500 2600
	1    0    0    -1  
$EndComp
Text GLabel 9500 2250 0    50   Input ~ 0
TXD
Text GLabel 9500 2350 0    50   Input ~ 0
RXD
Wire Wire Line
	9400 4550 9700 4550
Text GLabel 9700 4550 2    50   Input ~ 0
TXD
Wire Wire Line
	9400 4750 9700 4750
Text GLabel 9700 4750 2    50   Input ~ 0
RXD
Text Notes 8650 3450 0    89   ~ 18
ESP 12
Text Notes 2950 800  0    89   ~ 18
3.3 Regulator
Wire Notes Line
	1850 850  4900 850 
Wire Notes Line
	4900 850  4900 2400
Wire Notes Line
	4900 2400 1850 2400
Wire Notes Line
	1850 2400 1850 850 
Wire Notes Line
	9050 1900 10850 1900
Wire Notes Line
	10850 1900 10850 2950
Wire Notes Line
	10850 2950 9050 2950
Wire Notes Line
	9050 2950 9050 1900
Wire Notes Line
	10650 3500 10650 6300
Wire Notes Line
	10650 6300 7250 6300
Wire Notes Line
	7250 6300 7250 3500
Wire Notes Line
	7250 3500 10650 3500
Wire Notes Line
	1500 800  1500 2300
Wire Notes Line
	1500 2300 700  2300
Wire Notes Line
	700  2300 700  800 
Wire Notes Line
	700  800  1500 800 
Text Notes 850  750  0    89   ~ 18
USB B
Wire Wire Line
	6050 5400 5700 5400
Wire Wire Line
	5700 5400 5700 5500
$Comp
L power:GND #PWR08
U 1 1 5F77B31D
P 5700 5500
F 0 "#PWR08" H 5700 5250 50  0001 C CNN
F 1 "GND" H 5705 5327 50  0000 C CNN
F 2 "" H 5700 5500 50  0001 C CNN
F 3 "" H 5700 5500 50  0001 C CNN
	1    5700 5500
	1    0    0    -1  
$EndComp
Text GLabel 5650 4750 2    50   Input ~ 0
VCC
Wire Wire Line
	6050 5100 5650 5100
Wire Wire Line
	6050 5200 5650 5200
Wire Wire Line
	6050 5300 5650 5300
Text GLabel 5650 5100 0    50   Input ~ 0
MISO
Text GLabel 5650 5200 0    50   Input ~ 0
MOSI
Text GLabel 5650 5300 0    50   Input ~ 0
SCLK
Wire Notes Line
	5250 4600 7100 4600
Wire Notes Line
	7100 4600 7100 5750
Wire Notes Line
	7100 5750 5250 5750
Wire Notes Line
	5250 5750 5250 4600
Text Notes 5950 4550 0    89   ~ 18
SPI Breakout
Wire Wire Line
	8200 5050 8000 5050
Wire Wire Line
	8200 5150 8000 5150
Wire Wire Line
	8200 5450 8000 5450
Text GLabel 8000 5550 0    50   Input ~ 0
SCLK
Text GLabel 8000 5050 0    50   Input ~ 0
CS
Text GLabel 8000 5150 0    50   Input ~ 0
MISO
Text GLabel 8000 5450 0    50   Input ~ 0
MOSI
Wire Wire Line
	8000 5550 8200 5550
Text Notes 9500 1850 0    89   ~ 18
USB-TTL Pins
Text Notes 3450 6200 0    89   ~ 18
NeoPixel Magic\n
$Comp
L LED:APA102-2020 D1
U 1 1 5F79ADB8
P 1150 6900
F 0 "D1" H 1150 7381 50  0000 C CNN
F 1 "APA102-2020" H 1150 7290 50  0000 C CNN
F 2 "LED_SMD:LED-APA102-2020" H 1200 6600 50  0001 L TNN
F 3 "http://www.led-color.com/upload/201604/APA102-2020%20SMD%20LED.pdf" H 1250 6525 50  0001 L TNN
	1    1150 6900
	1    0    0    -1  
$EndComp
$Comp
L LED:APA102-2020 D3
U 1 1 5F79C074
P 2050 6900
F 0 "D3" H 2050 7381 50  0000 C CNN
F 1 "APA102-2020" H 2050 7290 50  0000 C CNN
F 2 "LED_SMD:LED-APA102-2020" H 2100 6600 50  0001 L TNN
F 3 "http://www.led-color.com/upload/201604/APA102-2020%20SMD%20LED.pdf" H 2150 6525 50  0001 L TNN
	1    2050 6900
	1    0    0    -1  
$EndComp
$Comp
L LED:APA102-2020 D4
U 1 1 5F79FB7B
P 3000 6900
F 0 "D4" H 3000 7381 50  0000 C CNN
F 1 "APA102-2020" H 3000 7290 50  0000 C CNN
F 2 "LED_SMD:LED-APA102-2020" H 3050 6600 50  0001 L TNN
F 3 "http://www.led-color.com/upload/201604/APA102-2020%20SMD%20LED.pdf" H 3100 6525 50  0001 L TNN
	1    3000 6900
	1    0    0    -1  
$EndComp
$Comp
L LED:APA102-2020 D6
U 1 1 5F7A091C
P 4050 6900
F 0 "D6" H 4050 7381 50  0000 C CNN
F 1 "APA102-2020" H 4050 7290 50  0000 C CNN
F 2 "LED_SMD:LED-APA102-2020" H 4100 6600 50  0001 L TNN
F 3 "http://www.led-color.com/upload/201604/APA102-2020%20SMD%20LED.pdf" H 4150 6525 50  0001 L TNN
	1    4050 6900
	1    0    0    -1  
$EndComp
$Comp
L LED:APA102-2020 D7
U 1 1 5F7A0E01
P 4900 6900
F 0 "D7" H 4900 7381 50  0000 C CNN
F 1 "APA102-2020" H 4900 7290 50  0000 C CNN
F 2 "LED_SMD:LED-APA102-2020" H 4950 6600 50  0001 L TNN
F 3 "http://www.led-color.com/upload/201604/APA102-2020%20SMD%20LED.pdf" H 5000 6525 50  0001 L TNN
	1    4900 6900
	1    0    0    -1  
$EndComp
$Comp
L LED:APA102-2020 D8
U 1 1 5F7A1871
P 5750 6900
F 0 "D8" H 5750 7381 50  0000 C CNN
F 1 "APA102-2020" H 5750 7290 50  0000 C CNN
F 2 "LED_SMD:LED-APA102-2020" H 5800 6600 50  0001 L TNN
F 3 "http://www.led-color.com/upload/201604/APA102-2020%20SMD%20LED.pdf" H 5850 6525 50  0001 L TNN
	1    5750 6900
	1    0    0    -1  
$EndComp
Text Notes 1250 2800 0    89   ~ 18
GPIO Breakout 1\n
Wire Wire Line
	8200 5250 8050 5250
Wire Wire Line
	8200 5350 8050 5350
Text GLabel 8050 5250 0    50   Input ~ 0
GPIO9
Text GLabel 8050 5350 0    50   Input ~ 0
GPIO10
Text GLabel 9400 5800 0    50   Input ~ 0
GPIO16_CKI
Text GLabel 9550 5150 2    50   Input ~ 0
GPIO13
Wire Wire Line
	9400 5150 9550 5150
Wire Wire Line
	9400 5250 9550 5250
Wire Wire Line
	9400 5050 9550 5050
Text GLabel 9550 5050 2    50   Input ~ 0
GPIO12
Text GLabel 8000 4850 0    50   Input ~ 0
ADC
Wire Wire Line
	8000 4850 8200 4850
Text GLabel 4300 3550 0    50   Input ~ 0
ADC
Wire Wire Line
	1650 3350 1350 3350
Wire Wire Line
	1650 3450 1350 3450
Wire Wire Line
	1650 3550 1350 3550
Text GLabel 4300 3450 0    50   Input ~ 0
GPIO9
Text GLabel 1350 3350 0    50   Input ~ 0
GPIO10
Text GLabel 1350 3450 0    50   Input ~ 0
GPIO12
Text GLabel 1350 3550 0    50   Input ~ 0
GPIO13
Wire Notes Line
	850  2900 2700 2900
Wire Notes Line
	2700 2900 2700 4100
Wire Notes Line
	2700 4100 850  4100
Wire Notes Line
	850  4100 850  2900
Text Notes 950  4550 0    89   ~ 18
Logic Level shifting
$Comp
L doh-badge-rescue:74AHCT125-74xx U1
U 1 1 5F7FFE75
P 2500 5250
F 0 "U1" H 2500 5700 50  0000 C CNN
F 1 "74AHCT125" H 2500 4800 50  0000 C CNN
F 2 "Package_SO:SOIC-14_3.9x8.7mm_P1.27mm" H 2250 5550 50  0001 C CNN
F 3 "" H 2250 5550 50  0001 C CNN
	1    2500 5250
	1    0    0    -1  
$EndComp
Wire Wire Line
	3000 4750 3000 4950
Wire Wire Line
	3000 4950 2850 4950
$Comp
L power:GND #PWR03
U 1 1 5F805B19
P 1800 5900
F 0 "#PWR03" H 1800 5650 50  0001 C CNN
F 1 "GND" H 1805 5727 50  0000 C CNN
F 2 "" H 1800 5900 50  0001 C CNN
F 3 "" H 1800 5900 50  0001 C CNN
	1    1800 5900
	1    0    0    -1  
$EndComp
Wire Wire Line
	2150 4950 1800 4950
Wire Wire Line
	1800 4950 1800 5250
Wire Wire Line
	1800 5550 2150 5550
Connection ~ 1800 5550
Text GLabel 1650 5150 0    50   Input ~ 0
NEO_SDI
Wire Wire Line
	1650 5050 2150 5050
Wire Wire Line
	2150 5150 1650 5150
Text GLabel 1650 5050 0    50   Input ~ 0
GPIO14_SDI
Text GLabel 9550 5250 2    50   Input ~ 0
GPIO14_SDI
Wire Wire Line
	9400 5450 9400 5800
Wire Notes Line
	3300 4600 3300 6150
Wire Notes Line
	3300 6150 950  6150
Wire Notes Line
	950  6150 950  4600
Wire Notes Line
	950  4600 3300 4600
Wire Wire Line
	1150 7200 1150 7300
Wire Wire Line
	1150 7300 1600 7300
Wire Wire Line
	2050 7300 2050 7200
$Comp
L power:GND #PWR07
U 1 1 5F833953
P 4400 7450
F 0 "#PWR07" H 4400 7200 50  0001 C CNN
F 1 "GND" H 4405 7277 50  0000 C CNN
F 2 "" H 4400 7450 50  0001 C CNN
F 3 "" H 4400 7450 50  0001 C CNN
	1    4400 7450
	1    0    0    -1  
$EndComp
Wire Wire Line
	3000 7200 3000 7300
Wire Wire Line
	4050 7200 4050 7300
Wire Wire Line
	4050 7300 3500 7300
Wire Wire Line
	4900 7300 4900 7200
Wire Wire Line
	4900 7300 5400 7300
Wire Wire Line
	5750 7300 5750 7200
Connection ~ 4900 7300
Wire Wire Line
	2050 7300 2500 7300
Connection ~ 2050 7300
Connection ~ 3000 7300
Wire Wire Line
	4400 7300 4400 7450
Wire Wire Line
	1150 6600 1600 6600
Wire Wire Line
	2050 6600 2500 6600
Connection ~ 2050 6600
Wire Wire Line
	3000 6600 3500 6600
Connection ~ 3000 6600
Connection ~ 4900 6600
Wire Wire Line
	4900 6600 5400 6600
Wire Wire Line
	1450 6900 1750 6900
Wire Wire Line
	1450 6800 1750 6800
Wire Wire Line
	2350 6800 2700 6800
Wire Wire Line
	2350 6900 2700 6900
Wire Wire Line
	3300 6800 3750 6800
Wire Wire Line
	3300 6900 3750 6900
Text GLabel 1650 5450 0    50   Input ~ 0
NEO_CKI
Wire Wire Line
	1650 5450 2150 5450
Wire Wire Line
	2150 5350 1650 5350
Wire Wire Line
	2150 5250 1800 5250
Connection ~ 1800 5250
Wire Wire Line
	1800 5250 1800 5550
Text GLabel 1650 5350 0    50   Input ~ 0
GPIO16_CKI
Wire Wire Line
	1650 3650 1350 3650
Wire Wire Line
	1350 3650 1350 3750
$Comp
L power:GND #PWR02
U 1 1 5F75D29A
P 1350 3750
F 0 "#PWR02" H 1350 3500 50  0001 C CNN
F 1 "GND" H 1355 3577 50  0000 C CNN
F 2 "" H 1350 3750 50  0001 C CNN
F 3 "" H 1350 3750 50  0001 C CNN
	1    1350 3750
	1    0    0    -1  
$EndComp
Wire Wire Line
	1800 5550 1800 5900
Text GLabel 750  6700 1    50   Input ~ 0
NEO_SDI
Text GLabel 650  6800 1    50   Input ~ 0
NEO_CKI
Wire Wire Line
	750  6800 850  6800
$Comp
L Device:C C1
U 1 1 5F804C99
P 1600 7100
F 0 "C1" H 1715 7146 50  0000 L CNN
F 1 "10uF" H 1715 7055 50  0000 L CNN
F 2 "Capacitor_SMD:C_0805_2012Metric" H 1638 6950 50  0001 C CNN
F 3 "~" H 1600 7100 50  0001 C CNN
	1    1600 7100
	1    0    0    -1  
$EndComp
Wire Wire Line
	1600 6600 1600 6950
Connection ~ 1600 6600
Wire Wire Line
	1600 6600 2050 6600
Wire Wire Line
	1600 7250 1600 7300
Connection ~ 1600 7300
Wire Wire Line
	1600 7300 2050 7300
$Comp
L Device:C C4
U 1 1 5F811BD5
P 2500 7100
F 0 "C4" H 2615 7146 50  0000 L CNN
F 1 "10uF" H 2615 7055 50  0000 L CNN
F 2 "Capacitor_SMD:C_0805_2012Metric" H 2538 6950 50  0001 C CNN
F 3 "~" H 2500 7100 50  0001 C CNN
	1    2500 7100
	1    0    0    -1  
$EndComp
Wire Wire Line
	2500 6600 2500 6950
Connection ~ 2500 6600
Wire Wire Line
	2500 6600 3000 6600
Wire Wire Line
	2500 7250 2500 7300
Connection ~ 2500 7300
Wire Wire Line
	2500 7300 3000 7300
$Comp
L Device:C C5
U 1 1 5F81F8EB
P 3500 7100
F 0 "C5" H 3615 7146 50  0000 L CNN
F 1 "10uF" H 3615 7055 50  0000 L CNN
F 2 "Capacitor_SMD:C_0805_2012Metric" H 3538 6950 50  0001 C CNN
F 3 "~" H 3500 7100 50  0001 C CNN
	1    3500 7100
	1    0    0    -1  
$EndComp
Wire Wire Line
	3500 6950 3500 6600
Wire Wire Line
	3500 7250 3500 7300
Connection ~ 3500 7300
Wire Wire Line
	3500 7300 3000 7300
$Comp
L Device:C C6
U 1 1 5F82E058
P 4450 7100
F 0 "C6" H 4565 7146 50  0000 L CNN
F 1 "10uF" H 4565 7055 50  0000 L CNN
F 2 "Capacitor_SMD:C_0805_2012Metric" H 4488 6950 50  0001 C CNN
F 3 "~" H 4450 7100 50  0001 C CNN
	1    4450 7100
	1    0    0    -1  
$EndComp
Wire Wire Line
	4450 6950 4450 6600
Wire Wire Line
	4450 6600 4900 6600
Wire Wire Line
	4450 7250 4450 7300
Connection ~ 4450 7300
Wire Wire Line
	4450 7300 4900 7300
$Comp
L Device:C C7
U 1 1 5F83D3C0
P 5400 7100
F 0 "C7" H 5150 7100 50  0000 L CNN
F 1 "10uF" H 5200 7000 50  0000 L CNN
F 2 "Capacitor_SMD:C_0805_2012Metric" H 5438 6950 50  0001 C CNN
F 3 "~" H 5400 7100 50  0001 C CNN
	1    5400 7100
	1    0    0    -1  
$EndComp
Wire Wire Line
	5400 6950 5400 6600
Wire Wire Line
	5400 7250 5400 7300
Connection ~ 1150 6600
NoConn ~ 9400 4650
NoConn ~ 2850 5050
NoConn ~ 2850 5150
NoConn ~ 2850 5250
NoConn ~ 2850 5350
NoConn ~ 2850 5450
NoConn ~ 2850 5550
Text GLabel 1900 1000 2    50   Input ~ 0
5V
Text GLabel 3100 4950 2    50   Input ~ 0
5V
Wire Wire Line
	3100 4950 3000 4950
Connection ~ 3000 4950
NoConn ~ 6900 6900
NoConn ~ 6900 6800
$Comp
L Device:C C8
U 1 1 5F84D058
P 6100 7100
F 0 "C8" H 6215 7146 50  0000 L CNN
F 1 "10uF" H 6215 7055 50  0000 L CNN
F 2 "Capacitor_SMD:C_0805_2012Metric" H 6138 6950 50  0001 C CNN
F 3 "~" H 6100 7100 50  0001 C CNN
	1    6100 7100
	1    0    0    -1  
$EndComp
Wire Wire Line
	6600 7300 6600 7200
$Comp
L LED:APA102-2020 D9
U 1 1 5F7A1FDB
P 6600 6900
F 0 "D9" H 6600 7381 50  0000 C CNN
F 1 "APA102-2020" H 6600 7290 50  0000 C CNN
F 2 "LED_SMD:LED-APA102-2020" H 6650 6600 50  0001 L TNN
F 3 "http://www.led-color.com/upload/201604/APA102-2020%20SMD%20LED.pdf" H 6700 6525 50  0001 L TNN
	1    6600 6900
	1    0    0    -1  
$EndComp
Wire Wire Line
	6050 6800 6300 6800
Wire Wire Line
	6050 6900 6300 6900
Wire Wire Line
	5750 6600 6100 6600
Wire Wire Line
	6100 6950 6100 6600
Connection ~ 6100 6600
Wire Wire Line
	6100 6600 6600 6600
Wire Wire Line
	5750 7300 6100 7300
Wire Wire Line
	6100 7300 6100 7250
Wire Wire Line
	6600 7300 6100 7300
Connection ~ 6100 7300
Wire Wire Line
	5200 6800 5450 6800
Wire Wire Line
	5200 6900 5450 6900
Wire Wire Line
	5400 6600 5750 6600
Connection ~ 5400 6600
Connection ~ 5750 6600
Wire Wire Line
	5400 7300 5750 7300
Connection ~ 5400 7300
Connection ~ 5750 7300
Wire Wire Line
	4400 7300 4450 7300
Wire Wire Line
	4350 6800 4600 6800
Wire Wire Line
	4350 6900 4600 6900
Wire Wire Line
	4050 6600 4450 6600
Connection ~ 4450 6600
Wire Wire Line
	4050 7300 4400 7300
Connection ~ 4050 7300
Connection ~ 4400 7300
Wire Wire Line
	3500 6600 4050 6600
Connection ~ 3500 6600
Connection ~ 4050 6600
Wire Notes Line
	6950 6250 6950 7700
Wire Wire Line
	750  6700 750  6800
Wire Wire Line
	850  6600 1150 6600
Wire Wire Line
	850  4750 850  6600
Wire Wire Line
	850  4750 3000 4750
Wire Wire Line
	650  6800 650  6900
Wire Wire Line
	650  6900 850  6900
Wire Notes Line
	550  6250 550  7700
Wire Notes Line
	550  6250 6950 6250
Wire Notes Line
	550  7700 6950 7700
$Comp
L Connector:USB_B J1
U 1 1 600992A6
P 1050 1350
F 0 "J1" H 1107 1817 50  0000 C CNN
F 1 "USB_B" H 1107 1726 50  0000 C CNN
F 2 "Connector_USB:USB_B_OST_USB-B1HSxx_Horizontal" H 1200 1300 50  0001 C CNN
F 3 " ~" H 1200 1300 50  0001 C CNN
	1    1050 1350
	1    0    0    -1  
$EndComp
Wire Wire Line
	950  1750 950  1850
Wire Wire Line
	950  1850 1050 1850
Connection ~ 1050 1850
Wire Wire Line
	1050 1850 1050 1950
Wire Wire Line
	1350 1350 1550 1350
Wire Wire Line
	1550 1350 1550 1600
Wire Wire Line
	1550 1600 1600 1600
Wire Wire Line
	1350 1450 1450 1450
Wire Wire Line
	1450 1450 1450 1700
Wire Wire Line
	1450 1700 1600 1700
Text GLabel 1600 1600 2    50   Input ~ 0
D+
Text GLabel 1600 1700 2    50   Input ~ 0
D-
Wire Wire Line
	3050 1150 4000 1150
$Comp
L Device:C C2
U 1 1 601CC558
P 2000 2000
F 0 "C2" H 1885 1954 50  0000 R CNN
F 1 "100nF" H 1885 2045 50  0000 R CNN
F 2 "Capacitor_SMD:C_0805_2012Metric" H 2038 1850 50  0001 C CNN
F 3 "~" H 2000 2000 50  0001 C CNN
	1    2000 2000
	-1   0    0    1   
$EndComp
Wire Wire Line
	2000 1150 2000 1850
Wire Wire Line
	2000 1150 2150 1150
Wire Wire Line
	2000 2150 2000 2200
Wire Wire Line
	2000 2200 2500 2200
Wire Wire Line
	2500 2200 2500 1750
Connection ~ 2500 1750
Wire Wire Line
	2500 1750 2750 1750
$Comp
L Diode:MBR0520 D2
U 1 1 602A5756
P 1650 1150
F 0 "D2" H 1650 933 50  0000 C CNN
F 1 "MBR0520" H 1650 1024 50  0000 C CNN
F 2 "Diode_SMD:D_SOD-123" H 1650 975 50  0001 C CNN
F 3 "http://www.mccsemi.com/up_pdf/MBR0520~MBR0580(SOD123).pdf" H 1650 1150 50  0001 C CNN
	1    1650 1150
	-1   0    0    1   
$EndComp
Wire Wire Line
	1350 1150 1500 1150
Wire Wire Line
	1800 1150 1900 1150
Connection ~ 2000 1150
Wire Wire Line
	1900 1000 1900 1150
Connection ~ 1900 1150
Wire Wire Line
	1900 1150 2000 1150
$Comp
L Transistor_BJT:UMH3N Q1
U 2 1 602F9746
P 8200 2050
F 0 "Q1" H 8490 2096 50  0000 L CNN
F 1 "UMH3N" H 8490 2005 50  0000 L CNN
F 2 "Package_TO_SOT_SMD:SOT-363_SC-70-6" H 8205 1610 50  0001 C CNN
F 3 "http://rohmfs.rohm.com/en/products/databook/datasheet/discrete/transistor/digital/emh3t2r-e.pdf" H 8350 2050 50  0001 C CNN
	2    8200 2050
	1    0    0    -1  
$EndComp
$Comp
L Transistor_BJT:UMH3N Q1
U 1 1 602F9D32
P 8200 1150
F 0 "Q1" H 8490 1196 50  0000 L CNN
F 1 "UMH3N" H 8490 1105 50  0000 L CNN
F 2 "Package_TO_SOT_SMD:SOT-363_SC-70-6" H 8205 710 50  0001 C CNN
F 3 "http://rohmfs.rohm.com/en/products/databook/datasheet/discrete/transistor/digital/emh3t2r-e.pdf" H 8350 1150 50  0001 C CNN
	1    8200 1150
	1    0    0    -1  
$EndComp
$Comp
L Interface_USB:CH340C U3
U 1 1 602FAE55
P 5950 2050
F 0 "U3" H 5950 1361 50  0000 C CNN
F 1 "CH340C" H 5950 1270 50  0000 C CNN
F 2 "Package_SO:SOIC-16_3.9x9.9mm_P1.27mm" H 6000 1500 50  0001 L CNN
F 3 "https://datasheet.lcsc.com/szlcsc/Jiangsu-Qin-Heng-CH340C_C84681.pdf" H 5600 2850 50  0001 C CNN
	1    5950 2050
	1    0    0    -1  
$EndComp
Text GLabel 6500 1650 2    50   Input ~ 0
RXD
Text GLabel 6850 1850 2    50   Input ~ 0
TXD
Wire Wire Line
	6350 1650 6500 1650
Wire Wire Line
	5850 1450 5850 1300
Wire Wire Line
	5850 1300 5900 1300
Wire Wire Line
	5950 1300 5950 1450
Wire Wire Line
	5900 1300 5900 1000
Wire Wire Line
	5900 1000 6150 1000
Connection ~ 5900 1300
Wire Wire Line
	5900 1300 5950 1300
Text GLabel 6500 1000 2    50   Input ~ 0
VCC
$Comp
L Device:C C10
U 1 1 6032E68E
P 6400 1200
F 0 "C10" H 6285 1154 50  0000 R CNN
F 1 "10uF" H 6285 1245 50  0000 R CNN
F 2 "Capacitor_SMD:C_0805_2012Metric" H 6438 1050 50  0001 C CNN
F 3 "~" H 6400 1200 50  0001 C CNN
	1    6400 1200
	-1   0    0    1   
$EndComp
$Comp
L Device:C C9
U 1 1 6032EF12
P 6150 1200
F 0 "C9" H 6050 1300 50  0000 L CNN
F 1 "100nF" H 6050 1100 50  0000 L CNN
F 2 "Capacitor_SMD:C_0805_2012Metric" H 6188 1050 50  0001 C CNN
F 3 "~" H 6150 1200 50  0001 C CNN
	1    6150 1200
	1    0    0    -1  
$EndComp
Wire Wire Line
	6150 1050 6150 1000
Connection ~ 6150 1000
Wire Wire Line
	6150 1000 6400 1000
Wire Wire Line
	6400 1050 6400 1000
Connection ~ 6400 1000
Wire Wire Line
	6400 1000 6500 1000
Wire Wire Line
	6150 1350 6150 1450
Wire Wire Line
	6150 1450 6400 1450
Wire Wire Line
	6900 1450 6900 1550
Wire Wire Line
	6400 1350 6400 1450
Connection ~ 6400 1450
Wire Wire Line
	6400 1450 6900 1450
$Comp
L power:GND #PWR09
U 1 1 6035A896
P 6900 1550
F 0 "#PWR09" H 6900 1300 50  0001 C CNN
F 1 "GND" H 6905 1377 50  0000 C CNN
F 2 "" H 6900 1550 50  0001 C CNN
F 3 "" H 6900 1550 50  0001 C CNN
	1    6900 1550
	1    0    0    -1  
$EndComp
$Comp
L Device:R R3
U 1 1 60363599
P 6600 1850
F 0 "R3" V 6800 1850 50  0000 C CNN
F 1 "470" V 6700 1850 50  0000 C CNN
F 2 "Resistor_SMD:R_0805_2012Metric" V 6530 1850 50  0001 C CNN
F 3 "~" H 6600 1850 50  0001 C CNN
	1    6600 1850
	0    1    1    0   
$EndComp
Wire Wire Line
	6750 1850 6850 1850
Wire Wire Line
	6450 1850 6450 1750
Wire Wire Line
	6450 1750 6350 1750
Text GLabel 5400 1950 0    50   Input ~ 0
D+
Text GLabel 5400 2050 0    50   Input ~ 0
D-
Wire Wire Line
	5400 1950 5550 1950
Wire Wire Line
	5400 2050 5550 2050
Wire Wire Line
	6350 2350 6600 2350
Text GLabel 6600 2350 2    50   Input ~ 0
DTR
Text GLabel 6600 2450 2    50   Input ~ 0
RTS
Wire Wire Line
	6350 2450 6600 2450
Text GLabel 8400 2500 2    50   Input ~ 0
RTS
Wire Wire Line
	8400 2500 8400 2250
Text GLabel 7850 2050 0    50   Input ~ 0
DTR
Text GLabel 8450 900  2    50   Input ~ 0
GPIO0
Text GLabel 8500 1450 2    50   Input ~ 0
DTR
Text GLabel 8000 900  0    50   Input ~ 0
RTS
Wire Wire Line
	8400 1850 8400 1650
Text GLabel 8400 1650 2    50   Input ~ 0
RST
Text GLabel 7500 4450 0    50   Input ~ 0
RST
Wire Wire Line
	7500 4450 7550 4450
Connection ~ 7550 4450
Text GLabel 10300 4450 2    50   Input ~ 0
GPIO0
Wire Wire Line
	10150 4450 10300 4450
Connection ~ 10150 4450
Text GLabel 10150 5350 2    50   Input ~ 0
GPIO15
Wire Wire Line
	9700 5350 10150 5350
Connection ~ 9700 5350
Text GLabel 7300 1200 0    50   Input ~ 0
RST
$Comp
L Device:C C11
U 1 1 605EB49B
P 7400 1450
F 0 "C11" H 7150 1500 50  0000 L CNN
F 1 "100nF" H 7100 1300 50  0000 L CNN
F 2 "Capacitor_SMD:C_0805_2012Metric" H 7438 1300 50  0001 C CNN
F 3 "~" H 7400 1450 50  0001 C CNN
	1    7400 1450
	1    0    0    -1  
$EndComp
$Comp
L power:GND #PWR010
U 1 1 606040A5
P 7400 1750
F 0 "#PWR010" H 7400 1500 50  0001 C CNN
F 1 "GND" H 7405 1577 50  0000 C CNN
F 2 "" H 7400 1750 50  0001 C CNN
F 3 "" H 7400 1750 50  0001 C CNN
	1    7400 1750
	1    0    0    -1  
$EndComp
Wire Wire Line
	7800 1700 7400 1700
Wire Notes Line
	8800 750  8800 2950
Wire Notes Line
	8800 2950 5200 2950
Wire Notes Line
	5200 2950 5200 750 
Wire Notes Line
	5200 750  8800 750 
Wire Wire Line
	7850 2050 8000 2050
Wire Wire Line
	7300 1200 7400 1200
Wire Wire Line
	7400 1200 7400 1300
Wire Wire Line
	7400 1600 7400 1700
Wire Wire Line
	7400 1200 7800 1200
Connection ~ 7400 1200
Wire Wire Line
	7800 1200 7800 1300
Wire Wire Line
	8400 900  8450 900 
Wire Wire Line
	8400 950  8400 900 
Wire Wire Line
	8400 1350 8400 1450
Wire Wire Line
	8400 1450 8500 1450
Wire Wire Line
	8000 900  8000 1150
Wire Wire Line
	7400 1750 7400 1700
Connection ~ 7400 1700
Text Notes 6600 700  0    89   ~ 18
USB to UART
$Comp
L Switch:SW_Push SW1
U 1 1 6097D1B1
P 3450 3600
F 0 "SW1" V 3350 3400 50  0000 L CNN
F 1 "User" V 3450 3400 50  0000 L CNN
F 2 "Button_Switch_SMD:SW_SPST_PTS645" H 3450 3800 50  0001 C CNN
F 3 "~" H 3450 3800 50  0001 C CNN
	1    3450 3600
	0    1    1    0   
$EndComp
$Comp
L Connector:Conn_01x05_Male J2
U 1 1 609CBF33
P 1850 3450
F 0 "J2" H 1822 3382 50  0000 R CNN
F 1 "Conn_01x05_Male" H 1822 3473 50  0000 R CNN
F 2 "Connector_JST:JST_XH_B5B-XH-A_1x05_P2.50mm_Vertical" H 1850 3450 50  0001 C CNN
F 3 "~" H 1850 3450 50  0001 C CNN
	1    1850 3450
	-1   0    0    1   
$EndComp
Text GLabel 1250 3150 0    50   Input ~ 0
VCC
Wire Wire Line
	1250 3150 1650 3150
Wire Wire Line
	1650 3150 1650 3250
Text GLabel 9550 4850 2    50   Input ~ 0
GPIO4(SDA)
Text GLabel 9550 4950 2    50   Input ~ 0
GPIO5(SCL)
Wire Wire Line
	9400 4950 9550 4950
Wire Wire Line
	9400 4850 9550 4850
Text GLabel 4300 3650 0    50   Input ~ 0
CS
$Comp
L Connector:Conn_01x05_Male J4
U 1 1 60B86561
P 6250 5200
F 0 "J4" H 6222 5132 50  0000 R CNN
F 1 "Conn_01x05_Male" H 6222 5223 50  0000 R CNN
F 2 "Connector_JST:JST_XH_B5B-XH-A_1x05_P2.50mm_Vertical" H 6250 5200 50  0001 C CNN
F 3 "~" H 6250 5200 50  0001 C CNN
	1    6250 5200
	-1   0    0    1   
$EndComp
Wire Wire Line
	5650 5000 6050 5000
Wire Wire Line
	5650 4750 5650 5000
Text GLabel 4300 3750 0    50   Input ~ 0
GPIO4(SDA)
Text GLabel 4300 3850 0    50   Input ~ 0
GPIO5(SCL)
$Comp
L Connector:Conn_01x05_Male J3
U 1 1 60BC09CD
P 4800 3650
F 0 "J3" H 4772 3582 50  0000 R CNN
F 1 "Conn_01x05_Male" H 5300 4000 50  0000 R CNN
F 2 "Connector_JST:JST_XH_B5B-XH-A_1x05_P2.50mm_Vertical" H 4800 3650 50  0001 C CNN
F 3 "~" H 4800 3650 50  0001 C CNN
	1    4800 3650
	-1   0    0    1   
$EndComp
Wire Wire Line
	4300 3850 4600 3850
Wire Wire Line
	4300 3750 4600 3750
Wire Wire Line
	4300 3650 4600 3650
Wire Wire Line
	4300 3550 4600 3550
Wire Wire Line
	4300 3450 4400 3450
Wire Wire Line
	3450 3800 3450 4050
$Comp
L power:GND #PWR05
U 1 1 60C1BD69
P 3450 4050
F 0 "#PWR05" H 3450 3800 50  0001 C CNN
F 1 "GND" H 3455 3877 50  0000 C CNN
F 2 "" H 3450 4050 50  0001 C CNN
F 3 "" H 3450 4050 50  0001 C CNN
	1    3450 4050
	1    0    0    -1  
$EndComp
Wire Wire Line
	3450 3400 3450 3250
Wire Wire Line
	3450 3250 4400 3250
Wire Wire Line
	4400 3250 4400 3450
Connection ~ 4400 3450
Wire Wire Line
	4400 3450 4600 3450
$Comp
L Device:R R1
U 1 1 60C3492D
P 3200 3250
F 0 "R1" V 2993 3250 50  0000 C CNN
F 1 "12K" V 3084 3250 50  0000 C CNN
F 2 "Resistor_SMD:R_0805_2012Metric" V 3130 3250 50  0001 C CNN
F 3 "~" H 3200 3250 50  0001 C CNN
	1    3200 3250
	0    -1   -1   0   
$EndComp
Wire Wire Line
	3350 3250 3450 3250
Connection ~ 3450 3250
Wire Wire Line
	3050 3250 3050 2950
Text GLabel 3050 2950 2    50   Input ~ 0
VCC
Wire Notes Line
	5100 2850 5100 4350
Wire Notes Line
	5100 4350 2900 4350
Wire Notes Line
	2900 4350 2900 2850
Wire Notes Line
	2900 2850 5100 2850
Text Notes 3450 2750 0    89   ~ 18
GPIO Breakout 2\n
$EndSCHEMATC
